{
  "title": "home",
  "articles": [
    {
      "id": "01",
      "sq": "",
      "en": ""
    },
    {
      "id": "02",
      "sq": "produkte",
      "en": "products"
    },
    {
      "id": "03",
      "sq": "rreth-nesh",
      "en": "about"
    },
    {
      "id": "04",
      "sq": "sherbime",
      "en": "services"
    },
    {
      "id": "05",
      "sq": "kontakt",
      "en": "contact"
    },
    {
      "id": "06",
      "sq": "produkte/profile-aksesore",
      "en": "products/drywall-profiles-accessories"
    },
    {
      "id": "07",
      "sq": "produkte/interior-exterior",
      "en": "products/interior-exterior"
    },
    {
      "id": "08",
      "sq": "produkte/mbulesa-celiku-llamarine",
      "en": "products/steel-roofing"
    },
    {
      "id": "09",
      "sq": "produkte/hessly-sisteme-gipsi-tavani",
      "en": "products/hessly-ceiling-systems"
    },
    {
      "id": "10",
      "sq": "produkte/rafte-aksesore",
      "en": "products/shelves-accessories"
    },
    {
      "id": "11",
      "sq": "produkte/profile-aksesore/hessly-profil-cw",
      "en": "products/drywall-profiles-accessories/hessly-cw-channel"
    },
    {
      "id": "12",
      "sq": "produkte/interior-exterior/pllake-cimentato",
      "en": "products/interior-exterior/cement-board"
    },
    {
      "id": "13",
      "sq": "produkte/interior-exterior/hessly-rrjete-cimentato",
      "en": "products/interior-exterior/hessly-cement-board-joint-tape"
    },
    {
      "id": "14",
      "sq": "produkte/interior-exterior/hessly-rrjete-qelqi-masive",
      "en": "products/interior-exterior/hessly-fiberglass-mesh"
    },
    {
      "id": "15",
      "sq": "produkte/profile-aksesore/hessly-profil-uw",
      "en": "products/drywall-profiles-accessories/hessly-uw-channel"
    },
    {
      "id": "16",
      "sq": "produkte/profile-aksesore/hessly-profil-cd",
      "en": "products/drywall-profiles-accessories/hessly-cd-channel"
    },
    {
      "id": "17",
      "sq": "produkte/profile-aksesore/hessly-profil-ud",
      "en": "products/drywall-profiles-accessories/hessly-ud-channel"
    },
    {
      "id": "18",
      "sq": "produkte/profile-aksesore/hessly-ele-kendore-celik",
      "en": "products/drywall-profiles-accessories/hessly-steel-angle-channels"
    },
    {
      "id": "19",
      "sq": "produkte/profile-aksesore/hessly-rrjete-fiber-qelqi-bashkuese",
      "en": "products/drywall-profiles-accessories/hessly-fiberglass-joint-tape"
    },
    {
      "id": "20",
      "sq": "produkte/profile-aksesore/hessly-shirit-akustik-biadeziv",
      "en": "products/drywall-profiles-accessories/hessly-acoustical-double-sided-sealing-tape"
    },
    {
      "id": "21",
      "sq": "produkte/profile-aksesore/pika-kontrolli-gipsi",
      "en": "products/drywall-profiles-accessories/access-panels"
    },
    {
      "id": "22",
      "sq": "produkte/profile-aksesore/hessly-upa-metalike-me-vrime",
      "en": "products/drywall-profiles-accessories/hessly-tie-wedge-anchor"
    },
    {
      "id": "23",
      "sq": "produkte/profile-aksesore/hessly-upa-goditese",
      "en": "products/drywall-profiles-accessories/hessly-hammer-drive-screws"
    },
    {
      "id": "24",
      "sq": "produkte/profile-aksesore/hessly-varese-direkte",
      "en": "products/drywall-profiles-accessories/hessly-direct-hangers"
    },
    {
      "id": "25",
      "sq": "produkte/profile-aksesore/hessly-ganxha",
      "en": "products/drywall-profiles-accessories/hessly-ceiling-connector"
    },
    {
      "id": "26",
      "sq": "produkte/profile-aksesore/hessly-tela-per-varje",
      "en": "products/drywall-profiles-accessories/hessly-hanging-wires"
    },
    {
      "id": "27",
      "sq": "produkte/profile-aksesore/hessly-bashkues-cd",
      "en": "products/drywall-profiles-accessories/hessly-cd-connector"
    },
    {
      "id": "28",
      "sq": "produkte/profile-aksesore/hessly-lidhese-kryq-teke",
      "en": "products/drywall-profiles-accessories/hessly-cross-connectors-single"
    },
    {
      "id": "29",
      "sq": "produkte/profile-aksesore/vide-per-sistemin-e-thate",
      "en": "products/drywall-profiles-accessories/drywall-screws"
    }
  ]
}
